\relax 
\citation{PSF_fitting}
\@writefile{lof}{\contentsline {figure}{\numberline {1}{\ignorespaces \textbf  {Detailed absorbance spectra of 1 $\mu $M Seta 670 as a function of temperature.}. }}{2}}
\newlabel{fg:zoom}{{1}{2}}
\newlabel{eq:confocal_volume}{{1}{2}}
\@writefile{lof}{\contentsline {figure}{\numberline {2}{\ignorespaces \textbf  {Concentration dependence of the Stokes fluorescence intensity of Seta 670}. }}{3}}
\newlabel{fg:conc_dep}{{2}{3}}
\@writefile{lof}{\contentsline {figure}{\numberline {3}{\ignorespaces FUCL emission spectra of Seta 670 (100 $\mu $M in methanol) excited at 775 nm and 785 nm. The high peaks at the excitation wavelengths were from the scattering of the solution. }}{3}}
\newlabel{fg:lambda_dep}{{3}{3}}
\bibstyle{ieeetr}
\bibdata{sup_info}
\@writefile{lof}{\contentsline {figure}{\numberline {4}{\ignorespaces Linear plots of logarithm of integrated fluorescence intensity against inverse temperature of Seta 670 solution. }}{4}}
\newlabel{fg:linear_plot}{{4}{4}}
\@writefile{lof}{\contentsline {figure}{\numberline {5}{\ignorespaces \textbf  {Two-photon-excited luminescence of gold nanorods}. (a) Typical two-photon-excited luminescence spectrum of a gold nanorod immersed in water. The immobilized nanorod was excited with the femtosecond laser (circularly polarized) with an average power of 3 $\mu $W. (b) Log-log plot of the dependence of the photoluminescence intensity on the excitation power for two gold nanorods. The fitted slopes reveal a quadratic intensity-excitation relation, confirming the two-photon excitation origin of photoluminescence from the nanorods. The nanorods were immersed in methanol and excited with the femtosecond laser (circularly polarized). (c) An image of two-photon-excited luminescence of gold nanorods immobilized on a glass coverslip and immersed in methanol. The image size is 30 $\mu $m $\times $ 30 $\mu $m. Each pixel is 0.2 $\mu $m $\times $ 0.2 $\mu $m with an integration time of 10 ms/pixel. The excitation source was the femtosecond laser (circularly polarized) with an average power of 3 $\mu $W. For (a-c), a 745-nm shortpass filter and a 785-nm notch filter were used to block the excitation wavelength. }}{5}}
\newlabel{fg:2p_PL_NR}{{5}{5}}
\@writefile{lof}{\contentsline {figure}{\numberline {6}{\ignorespaces \textbf  {\textit  {xz} section of the scattering PSF measured with a gold nanorod}. Line profiles through the center are shown. The red (along the \textit  {x} axis) and green (along the \textit  {z} axis) dots show the experimental data and the black lines represent two-dimensional Gaussian fits, which yield $w_x = 237.0 \pm 1.4$ nm and $w_z = 731.1 \pm 4.4$ nm. }}{6}}
\newlabel{fg:PSF}{{6}{6}}
