Sample6,,
Wavelength (nm),Intensity (a.u.),
600,2.399232149,
601.0100098,1.410437226,
602.0200195,0.9289363623,
603.039978,-1.399253726,
604.0499878,5.183788776,
605.0700073,0.4572473764,
605.9400024,-1.846722126,
606.9500122,-5.887681007,
607.9699707,7.548845291,
608.9799805,4.297994137,
610,3.91986084,
611.0200195,3.574620247,
612.0499878,2.233139753,
612.9400024,6.300630093,
613.9699707,4.349717617,
615,0,
616.0200195,0.9045680761,
617.0499878,0.4699248374,
617.9400024,-0.4570384026,
618.9699707,0.9186954498,
620,0,
621.0100098,1.36116147,
622.0200195,-0.4520795643,
623.039978,-1.384402394,
624.0499878,-0.9165902734,
625.0700073,1.834021091,
625.9400024,0,
626.9500122,2.748511314,
627.9699707,0.4506534636,
628.9799805,0.4502476454,
630,-0.4555808604,
631.0100098,-3.693444252,
632.0200195,1.4224751,
633.039978,-1.798561215,
634.0499878,0.4522840381,
635.0700073,-2.282063007,
635.9400024,-1.397298574,
636.9500122,-4.046762466,
637.9699707,-1.369237781,
638.9799805,1.808318257,
640,0.4488330483,
641.0100098,0.9115770459,
642.0200195,2.212389469,
643.039978,5.476951122,
644.0499878,-1.788109064,
645.0700073,0.4409171045,
645.9400024,3.593890429,
646.9500122,0.8904719949,
647.9699707,-2.683363199,
648.9799805,0.9078529477,
650,-0.4468275309,
651.0100098,4.005340576,
652.0200195,4.141739368,
653.039978,4.01248312,
654.0499878,4.043126583,
655.0700073,-0.4549590647,
655.9400024,-4.115226269,
656.9500122,3.565062284,
657.9699707,4.434589863,
658.9799805,3.15741992,
660,1.373626351,
661,-0.8707009554,
662,5.840072155,
663,3.190519571,
664,-0.44722718,
665,2.311604261,
666,6.864988804,
667,1.379944801,
668,4.44839859,
669,1.388888955,
670,-0.8826125264,
671.0100098,1.784917474,
672.0200195,5.457026005,
673.039978,2.267573833,
674.0499878,0.4353504777,
675.0700073,3.956044197,
675.9400024,-0.90744102,
676.9500122,-1.751313448,
677.9699707,3.094606638,
678.9799805,0,
680,4.46827507,
681,4.90196085,
682,6.175562382,
683,7.495591164,
684,6.213936806,
685,7.968127728,
686,17.31793976,
687,8.282476425,
688,10.61007977,
689,9.636443138,
690,8.920606613,
691,10.75750732,
692,13.97990417,
693,7.843137741,
694,14.35406685,
695,12.15277767,
696,6.326253891,
697,25.17064857,
698,26.37362671,
699,24.01067162,
700,25.73203087,
700.9799805,21.78746033,
701.9699707,12.99283218,
702.9500122,33.58710098,
703.9400024,31.66226959,
705.0700073,41.02096558,
706.0499878,37.73585129,
707.039978,37.75322342,
708.0200195,41.27829361,
709.0100098,42.57246399,
710,21.6776619,
711,33.92259598,
712,38.70043182,
713,50.862854,
714,84.9525528,
715,77.90432739,
716,66.69776154,
717,63.73223495,
718,62.90471649,
719,81.95211792,
720,88.90926361,
720.9799805,77.54734039,
721.9699707,63.42779922,
722.9500122,82.14120483,
723.9400024,83.94833374,
725.0700073,56.27306366,
726.0499878,99.41255951,
727.039978,75.92592621,
728.0200195,79.40904999,
729.0100098,74.09111786,
730,76.8181839,
730.9799805,65.62643433,
731.9699707,72.54362488,
732.9500122,58.22550964,
733.9400024,66.97038269,
735.0700073,46.05562973,
736.0499878,62.18564224,
737.039978,65.62054443,
738.0200195,52.87786484,
739.0100098,42.22011566,
740,56.95911789,
740.9699707,50.46295929,
741.9400024,54.29234314,
743.0499878,40.31510544,
744.0200195,55.3171196,
745,27.80269051,
745.9699707,46.75081635,
746.9400024,37.56957626,
748.0499878,42.42700577,
749.0200195,29.21772003,
750,34.83043289,
750.9699707,41.55374908,
751.9400024,32.3609848,
753.0499878,25.39242744,
754.0200195,25.79456329,
755,36.78160858,
755.9699707,29.01178551,
756.9400024,32.64925385,
758.0499878,54.57909393,
759.0200195,33.45388794,
760,15.85081577,
760.9799805,27.37819099,
761.9699707,38.28413391,
762.9500122,18.63064766,
763.9400024,18.01385689,
765.0700073,40.53431702,
766.0499878,16.07716942,
767.039978,24.98864174,
768.0200195,24.89814377,
769.0100098,30.2756443,
770,42.56292725,
770.9500122,134.6417236,
772.0499878,252.445282,
773.0100098,392.9254456,
773.9699707,510.8597412,
775.0599976,622.4988403,
776.0200195,689.7341309,
776.9799805,684.8567505,
777.9400024,594.3012085,
779.039978,431.8076782,
780,259.4104309,
780.9699707,150.1103821,
781.9400024,124.3218765,
783.0499878,15.46619511,
784.0200195,26.96629333,
785,18.52688599,
785.9699707,21.46690559,
786.9400024,8.91265583,
788.0499878,4.021447659,
789.0200195,10.37437916,
790,8.493518829,
790.9500122,16.65166664,
792.0499878,10.06864929,
793.0100098,7.787448406,
793.9699707,14.67216873,
795.0599976,8.550855637,
796.0200195,8.562416077,
796.9799805,9.909910202,
797.9400024,8.192991257,
799.039978,6.750674725,
800,10.75268841,
800.9500122,5.013673782,
802.0499878,9.747451782,
803.0100098,7.8341012,
803.9699707,9.009009361,
805.0599976,14.73296547,
806.0200195,4.934948444,
806.9799805,10.94890499,
807.9400024,10.3417263,
809.039978,8.306414604,
810,5.018248081,
810.9500122,2.701485872,
812.0499878,6.375227451,
813.0100098,5.853219509,
813.9699707,5.420054436,
815.0599976,4.937163353,
816.0200195,4.005340576,
816.9799805,3.581020594,
817.9400024,9.863785744,
819.039978,5.957836628,
820,5.265467167,
820.9400024,2.751031637,
822.0200195,4.01248312,
822.9699707,2.728513002,
824.0499878,5.474452496,
825,4.908523083,
825.9400024,5.917160034,
827.0200195,3.052769184,
827.9699707,0.9132419825,
829.0499878,0.4376367629,
830,3.178928375,
830.9400024,-0.4401408434,
832.0200195,5.459508896,
832.9699707,5.272407532,
834.0499878,-1.773836017,
835,-0.8976660967,
835.9400024,0.8888888955,
837.0200195,1.767565131,
837.9699707,1.31463635,
839.0499878,-3.104212999,
840,0.905387044,
841.0599976,5.29801321,
842,0.4426737428,
843.0599976,5.459508896,
844,-1.297577858,
845.0599976,-1.316366792,
846,-1.792114735,
847.0599976,0.8775778413,
848,0.4428697824,
849.0599976,0,
850,0,
850.9400024,0,
852.0200195,0.9062075615,
852.9699707,0.8791208863,
854.0499878,-0.9041591287,
855,-1.346499085,
855.9400024,1.360544205,
857.0200195,0.9128251672,
857.9699707,-1.374255657,
859.0499878,2.228163958,
860,-0.9263547659,
861.0599976,2.805049181,
862,3.647970676,
863.0599976,0.9259259105,
864,-1.399253726,
865.0599976,1.354401827,
866,0.4670714438,
867.0599976,3.26036334,
868,-2.262443542,
869.0599976,0,
870,-0.4545454681,
871.0499878,4.500450134,
871.9699707,-0.4662004709,
873.0200195,0,
873.9400024,2.308402777,
875,0,
876.0499878,-0.4627487361,
876.9699707,0,
878.0200195,4.098360538,
878.9400024,1.832340837,
880,0.9267840385,
881.0599976,-2.291475773,
882,-4.977375507,
883.0599976,0.919963181,
884,-0.9208103418,
885.0599976,2.215330124,
886,4.5289855,
887.0599976,2.27169466,
888,-0.4464285672,
889.0599976,-0.4539264739,
890,3.153153181,
891.0300293,-0.4456327856,
891.9400024,0.4539264739,
892.9799805,4.055881023,
894.0200195,-0.4366812408,
895.0599976,-0.9132419825,
895.9699707,0,
897.0100098,3.202195644,
898.0499878,4.458314896,
898.960022,0.455788523,
900,2.27169466,

