Sample13,,
Wavelength (nm),Intensity (a.u.),
610,0.223164469,
611.0200195,0.3835009336,
612.0499878,0.6353778243,
612.9400024,0.4682644606,
613.9699707,0.7559213638,
615,0.5146459341,
616.0200195,0.4766444266,
617.0499878,0.3428620398,
617.9400024,0.896822691,
618.9699707,0.65930444,
620,0.4915816784,
621.0100098,0.5750668049,
622.0200195,0.4208045602,
623.039978,0.4145765007,
624.0499878,0.4862630665,
625.0700073,0.8298066854,
625.9400024,0.3686862588,
626.9500122,0.7061266899,
627.9699707,0.6561411023,
628.9799805,0.420981735,
630,0.5417343974,
631.0100098,0.2485089302,
632.0200195,0.5878154039,
633.039978,0.8474575877,
634.0499878,0.6264355779,
635.0700073,0.6208609343,
635.9400024,0.4226363897,
636.9500122,0.7534533739,
637.9699707,0.7419620752,
638.9799805,0.8870865703,
640,0.9148750305,
641.0100098,0.7188768387,
642.0200195,1.315464973,
643.039978,1.139044881,
644.0499878,1.068507791,
645.0700073,1.282634854,
645.9400024,1.171793222,
646.9500122,1.256965637,
647.9699707,1.551400304,
648.9799805,1.32078588,
650,1.506717443,
651.0100098,1.874141097,
652.0200195,1.883884192,
653.039978,1.925733685,
654.0499878,2.025044441,
655.0700073,2.187190533,
655.9400024,2.549471855,
656.9500122,3.102336884,
657.9699707,3.527481556,
658.9799805,3.617944956,
660,4.05679512,
661,4.477431297,
662,4.222463131,
663,5.49095583,
664,6.014059544,
665,6.459525585,
666,7.068689823,
667,8.563008308,
668,9.127256393,
669,9.830648422,
670,11.77686024,
671.0100098,12.32181644,
672.0200195,13.53293419,
673.039978,15.26526546,
674.0499878,17.21239281,
675.0700073,18.91749954,
675.9400024,20.95013237,
676.9500122,22.37756348,
677.9699707,25.34137154,
678.9799805,26.91869545,
680,28.64077759,
681,31.26584435,
682,34.86122894,
683,37.32968903,
684,39.28889847,
685,43.28693008,
686,46.94351196,
687,51.85030365,
688,54.92911148,
689,59.90591812,
690,64.12908173,
691,69.87261963,
692,74.97872162,
693,78.53272247,
694,82.88558197,
695,90.98167419,
696,92.1820755,
697,99.14116669,
698,104.4555664,
699,107.6133499,
700,114.5558701,
700.9799805,118.5596771,
701.9699707,121.7455978,
702.9500122,122.9566193,
703.9400024,126.1852112,
705.0700073,126.6485291,
706.0499878,130.421936,
707.039978,131.0137177,
708.0200195,125.5144958,
709.0100098,130.8399811,
710,127.9528427,
711,127.5901947,
712,126.3857193,
713,124.9524765,
714,124.1723251,
715,119.4725952,
716,115.7010803,
717,113.356163,
718,111.2865372,
719,107.3910828,
720,102.3529358,
720.9799805,98.95719147,
721.9699707,93.50011444,
722.9500122,90.05126953,
723.9400024,86.10861206,
725.0700073,80.17021179,
726.0499878,77.1823349,
727.039978,74.65576935,
728.0200195,71.26398468,
729.0100098,68.53808594,
730,65.33934784,
730.9799805,63.86978149,
731.9699707,58.40791321,
732.9500122,56.20179367,
733.9400024,53.77124786,
735.0700073,50.16450882,
736.0499878,47.13832855,
737.039978,45.2662468,
738.0200195,43.91791534,
739.0100098,42.49978638,
740,39.84446716,
740.9699707,38.99212265,
741.9400024,36.34462357,
743.0499878,36.18215942,
744.0200195,32.92094803,
745,32.92521286,
745.9699707,30.75756264,
746.9400024,29.39809799,
748.0499878,28.47704315,
749.0200195,26.53809547,
750,26.41015816,
750.9699707,24.95791245,
751.9400024,24.20903206,
753.0499878,22.71959305,
754.0200195,22.22313118,
755,22.43523407,
755.9699707,20.35557938,
756.9400024,20.0492878,
758.0499878,19.46532059,
759.0200195,19.1847496,
760,19.15423965,
760.9799805,17.70243263,
761.9699707,18.30233002,
762.9500122,17.16265869,
763.9400024,16.32284737,
765.0700073,16.79891968,
766.0499878,16.31226349,
767.039978,15.55527782,
768.0200195,14.85766602,
769.0100098,14.55319118,
770,13.44364071,
770.9500122,13.73671246,
772.0499878,12.90002441,
773.0100098,12.99082279,
773.9699707,12.68115902,
775.0599976,12.07459831,
776.0200195,11.6042099,
776.9799805,10.66533375,
777.9400024,11.37815857,
779.039978,10.87324429,
780,10.91550732,
780.9699707,10.64581871,
781.9400024,10.24530411,
783.0499878,8.933064461,
784.0200195,9.769570351,
785,9.129899979,
785.9699707,8.381849289,
786.9400024,8.812024117,
788.0499878,8.532134056,
789.0200195,7.441977978,
790,8.131403923,
790.9500122,7.556357861,
792.0499878,6.845312595,
793.0100098,6.768259525,
793.9699707,6.650518894,
795.0599976,6.815159798,
796.0200195,6.071190834,
796.9799805,5.994897842,
797.9400024,5.448381424,
799.039978,5.223757744,
800,5.111638069,
800.9500122,5.174212456,
802.0499878,4.164625168,
803.0100098,3.944855213,
803.9699707,4.869665146,
805.0599976,3.94986105,
806.0200195,3.758476973,
806.9799805,3.559897423,
807.9400024,3.371347666,
809.039978,3.465925217,
810,3.292858601,
810.9500122,3.374482155,
812.0499878,2.649062395,
813.0100098,2.865924597,
813.9699707,3.108003139,
815.0599976,2.670983315,
816.0200195,2.383300543,
816.9799805,2.343529224,
817.9400024,2.104377031,
819.039978,2.301728249,
820,2.270699978,
820.9400024,1.86807251,
822.0200195,1.658374786,
822.9699707,1.609010458,
824.0499878,1.440388441,
825,1.476377964,
825.9400024,1.6062603,
827.0200195,1.532535315,
827.9699707,0.9326088428,
829.0499878,1.154496312,
830,1.067008138,
830.9400024,1.207126141,
832.0200195,0.769230783,
832.9699707,0.8913378119,
834.0499878,0.8903278112,
835,0.9222872853,
835.9400024,0.9023789763,
837.0200195,0.693764329,
837.9699707,0.9036391973,
839.0499878,0.7310238481,
840,0.5873468518,
841.0599976,0.4928333759,
842,0.3218668401,
843.0599976,0.6761325002,
844,0.5276188254,
845.0599976,0.6164467931,
846,0.5258261561,
847.0599976,0.2411672473,
848,0.2126211971,
849.0599976,0.243239969,
850,0.3675269485,
850.9400024,0.4037956893,
852.0200195,0.4917025268,
852.9699707,0.08173941821,
854.0499878,0.1210751534,
855,0.119750917,
855.9400024,0.1220703125,
857.0200195,0.2790400982,
857.9699707,0.2877934575,
859.0499878,-0.206381321,
860,0.1297353506,
861.0599976,0.3790431321,
862,0.3736145198,
863.0599976,-0.1264009476,
864,0.246964395,
865.0599976,0.2983166575,
866,-0.08522606641,
867.0599976,-0.08385393023,
868,-0.1710205674,
869.0599976,0.1290988922,
870,0.4121502042,
871.0499878,0.1236705408,
871.9699707,0.3048382103,
873.0200195,0.2101546675,
873.9400024,0.08409367502,
875,0.4648410976,
876.0499878,0.3828158379,
876.9699707,-0.1283093095,
878.0200195,0.1275130659,
878.9400024,-0.08257638663,
880,-0.2070136219,
881.0599976,0.1649620533,
882,0.2862400413,
883.0599976,0.2067653686,
884,0.336941421,
885.0599976,0.3337365985,
886,0.08296689391,
887.0599976,-0.08252186328,
888,0,
889.0599976,0,
890,0.1658031046,
891.0300293,0.1250260472,
891.9400024,0.04144390672,
892.9799805,0.1260928065,
894.0200195,-0.08216251433,
895.0599976,-0.04051207379,
895.9699707,0.3359932601,
897.0100098,-0.08638188988,
898.0499878,0,
898.960022,0.08520790935,
900,0.2484472096,

