<?xml version="1.0"?>
<!DOCTYPE svg PUBLIC '-//W3C//DTD SVG 1.0//EN'
          'http://www.w3.org/TR/2001/REC-SVG-20010904/DTD/svg10.dtd'>
<svg xmlns:xlink="http://www.w3.org/1999/xlink" style="fill-opacity:1; color-rendering:auto; color-interpolation:auto; stroke:black; text-rendering:auto; stroke-linecap:square; stroke-miterlimit:10; stroke-opacity:1; shape-rendering:auto; fill:black; stroke-dasharray:none; font-weight:normal; stroke-width:1; font-family:'Dialog'; font-style:normal; stroke-linejoin:miter; font-size:12px; stroke-dashoffset:0; image-rendering:auto;" width="560" height="420" xmlns="http://www.w3.org/2000/svg"
><!--Generated by the Batik Graphics2D SVG Generator--><defs id="genericDefs"
  /><g
  ><defs id="defs1"
    ><clipPath clipPathUnits="userSpaceOnUse" id="clipPath1"
      ><path d="M0 0 L560 0 L560 420 L0 420 L0 0 Z"
      /></clipPath
      ><font horiz-adv-x="75.0" id="font1"
      ><font-face ascent="100.53711" descent="21.972656" units-per-em="100" style="font-style:normal; font-family:sans-serif; font-weight:normal;"
        /><missing-glyph horiz-adv-x="75.0" d="M12.5 0 L12.5 62.5 L62.5 62.5 L62.5 0 L12.5 0 ZM14.0625 1.5625 L60.9375 1.5625 L60.9375 60.9375 L14.0625 60.9375 L14.0625 1.5625 Z"
        /><glyph unicode="0" horiz-adv-x="55.615234" d="M4.1562 35.2969 Q4.1562 48 6.7656 55.7422 Q9.375 63.4844 14.5234 67.6797 Q19.6719 71.875 27.4844 71.875 Q33.25 71.875 37.5938 69.5547 Q41.9375 67.2344 44.7734 62.8672 Q47.6094 58.5 49.2188 52.2266 Q50.8281 45.9531 50.8281 35.2969 Q50.8281 22.7031 48.2422 14.9688 Q45.6562 7.2344 40.5078 3.0078 Q35.3594 -1.2188 27.4844 -1.2188 Q17.1406 -1.2188 11.2344 6.2031 Q4.1562 15.1406 4.1562 35.2969 ZM13.1875 35.2969 Q13.1875 17.6719 17.3125 11.8359 Q21.4375 6 27.4844 6 Q33.5469 6 37.6719 11.8594 Q41.7969 17.7188 41.7969 35.2969 Q41.7969 52.9844 37.6719 58.7891 Q33.5469 64.5938 27.3906 64.5938 Q21.3438 64.5938 17.7188 59.4688 Q13.1875 52.9375 13.1875 35.2969 Z"
        /><glyph unicode="1" horiz-adv-x="55.615234" d="M37.25 0 L28.4688 0 L28.4688 56 Q25.2969 52.9844 20.1406 49.9531 Q14.9844 46.9219 10.8906 45.4062 L10.8906 53.9062 Q18.2656 57.375 23.7812 62.3047 Q29.2969 67.2344 31.5938 71.875 L37.25 71.875 L37.25 0 Z"
        /><glyph unicode=")" horiz-adv-x="33.30078" d="M12.3594 -21.0469 L6.0625 -21.0469 Q20.6562 2.3906 20.6562 25.875 Q20.6562 35.0625 18.5625 44.0938 Q16.8906 51.4219 13.9219 58.1562 Q12.0156 62.5469 6.0625 72.7969 L12.3594 72.7969 Q21.5312 60.5469 25.9219 48.1875 Q29.6875 37.5469 29.6875 25.9219 Q29.6875 12.75 24.6328 0.4453 Q19.5781 -11.8594 12.3594 -21.0469 Z"
        /><glyph unicode="W" horiz-adv-x="94.384766" d="M20.2188 0 L1.2188 71.5781 L10.9375 71.5781 L21.8281 24.6562 Q23.5781 17.2812 24.8594 10.0156 Q27.5938 21.4844 28.0781 23.25 L41.7031 71.5781 L53.125 71.5781 L63.375 35.3594 Q67.2344 21.875 68.9531 10.0156 Q70.3125 16.7969 72.5156 25.5938 L83.7344 71.5781 L93.2656 71.5781 L73.6406 0 L64.5 0 L49.4219 54.5469 Q47.5156 61.375 47.1719 62.9375 Q46.0469 58.0156 45.0625 54.5469 L29.8906 0 L20.2188 0 Z"
        /><glyph unicode="u" horiz-adv-x="55.615234" d="M40.5781 0 L40.5781 7.625 Q34.5156 -1.1719 24.125 -1.1719 Q19.5312 -1.1719 15.5547 0.5859 Q11.5781 2.3438 9.6484 5.0078 Q7.7188 7.6719 6.9375 11.5312 Q6.3906 14.1094 6.3906 19.7344 L6.3906 51.8594 L15.1875 51.8594 L15.1875 23.0938 Q15.1875 16.2188 15.7188 13.8125 Q16.5469 10.3594 19.2344 8.375 Q21.9219 6.3906 25.875 6.3906 Q29.8281 6.3906 33.2969 8.4219 Q36.7656 10.4531 38.2109 13.9453 Q39.6562 17.4375 39.6562 24.0781 L39.6562 51.8594 L48.4375 51.8594 L48.4375 0 L40.5781 0 Z"
        /><glyph unicode="(" horiz-adv-x="33.30078" d="M23.3906 -21.0469 Q16.1094 -11.8594 11.0859 0.4453 Q6.0625 12.75 6.0625 25.9219 Q6.0625 37.5469 9.8125 48.1875 Q14.2031 60.5469 23.3906 72.7969 L29.6875 72.7969 Q23.7812 62.6406 21.875 58.2969 Q18.8906 51.5625 17.1875 44.2344 Q15.0938 35.1094 15.0938 25.875 Q15.0938 2.3906 29.6875 -21.0469 L23.3906 -21.0469 Z"
        /><glyph unicode="r" horiz-adv-x="33.30078" d="M6.5 0 L6.5 51.8594 L14.4062 51.8594 L14.4062 44 Q17.4375 49.5156 20 51.2734 Q22.5625 53.0312 25.6406 53.0312 Q30.0781 53.0312 34.6719 50.2031 L31.6406 42.0469 Q28.4219 43.9531 25.2031 43.9531 Q22.3125 43.9531 20.0156 42.2188 Q17.7188 40.4844 16.75 37.4062 Q15.2812 32.7188 15.2812 27.1562 L15.2812 0 L6.5 0 Z"
        /><glyph unicode="e" horiz-adv-x="55.615234" d="M42.0938 16.7031 L51.1719 15.5781 Q49.0312 7.625 43.2188 3.2266 Q37.4062 -1.1719 28.375 -1.1719 Q17 -1.1719 10.3281 5.8359 Q3.6562 12.8438 3.6562 25.4844 Q3.6562 38.5781 10.3984 45.8047 Q17.1406 53.0312 27.875 53.0312 Q38.2812 53.0312 44.875 45.9531 Q51.4688 38.875 51.4688 26.0312 Q51.4688 25.25 51.4219 23.6875 L12.75 23.6875 Q13.2344 15.1406 17.5781 10.6016 Q21.9219 6.0625 28.4219 6.0625 Q33.25 6.0625 36.6719 8.6016 Q40.0938 11.1406 42.0938 16.7031 ZM13.2344 30.9062 L42.1875 30.9062 Q41.6094 37.4531 38.875 40.7188 Q34.6719 45.7969 27.9844 45.7969 Q21.9219 45.7969 17.7969 41.75 Q13.6719 37.7031 13.2344 30.9062 Z"
        /><glyph unicode="w" horiz-adv-x="72.2168" d="M16.1562 0 L0.2969 51.8594 L9.375 51.8594 L17.625 21.9219 L20.7031 10.7969 Q20.9062 11.625 23.3906 21.4844 L31.6406 51.8594 L40.6719 51.8594 L48.4375 21.7812 L51.0312 11.8594 L54 21.875 L62.8906 51.8594 L71.4375 51.8594 L55.2188 0 L46.0938 0 L37.8438 31.0625 L35.8438 39.8906 L25.3438 0 L16.1562 0 Z"
        /><glyph unicode="p" horiz-adv-x="55.615234" d="M6.5938 -19.875 L6.5938 51.8594 L14.5938 51.8594 L14.5938 45.125 Q17.4375 49.0781 21 51.0547 Q24.5625 53.0312 29.6406 53.0312 Q36.2812 53.0312 41.3594 49.6094 Q46.4375 46.1875 49.0234 39.9609 Q51.6094 33.7344 51.6094 26.3125 Q51.6094 18.3594 48.7578 11.9844 Q45.9062 5.6094 40.4609 2.2188 Q35.0156 -1.1719 29 -1.1719 Q24.6094 -1.1719 21.1172 0.6875 Q17.625 2.5469 15.375 5.375 L15.375 -19.875 L6.5938 -19.875 ZM14.5469 25.6406 Q14.5469 15.625 18.6016 10.8438 Q22.6562 6.0625 28.4219 6.0625 Q34.2812 6.0625 38.4531 11.0156 Q42.625 15.9688 42.625 26.375 Q42.625 36.2812 38.5469 41.2109 Q34.4688 46.1406 28.8125 46.1406 Q23.1875 46.1406 18.8672 40.8906 Q14.5469 35.6406 14.5469 25.6406 Z"
        /><glyph unicode=" " horiz-adv-x="27.783203" d=""
        /><glyph unicode="n" horiz-adv-x="55.615234" d="M6.5938 0 L6.5938 51.8594 L14.5 51.8594 L14.5 44.4844 Q20.2188 53.0312 31 53.0312 Q35.6875 53.0312 39.625 51.3438 Q43.5625 49.6562 45.5156 46.9219 Q47.4688 44.1875 48.25 40.4375 Q48.7344 37.9844 48.7344 31.8906 L48.7344 0 L39.9375 0 L39.9375 31.5469 Q39.9375 36.9219 38.9141 39.5781 Q37.8906 42.2344 35.2812 43.8203 Q32.6719 45.4062 29.1562 45.4062 Q23.5312 45.4062 19.4531 41.8438 Q15.375 38.2812 15.375 28.3281 L15.375 0 L6.5938 0 Z"
        /><glyph unicode="o" horiz-adv-x="55.615234" d="M3.3281 25.9219 Q3.3281 40.3281 11.3281 47.2656 Q18.0156 53.0312 27.6406 53.0312 Q38.3281 53.0312 45.1172 46.0234 Q51.9062 39.0156 51.9062 26.6562 Q51.9062 16.6562 48.9062 10.9141 Q45.9062 5.1719 40.1641 2 Q34.4219 -1.1719 27.6406 -1.1719 Q16.75 -1.1719 10.0391 5.8125 Q3.3281 12.7969 3.3281 25.9219 ZM12.3594 25.9219 Q12.3594 15.9688 16.7031 11.0156 Q21.0469 6.0625 27.6406 6.0625 Q34.1875 6.0625 38.5312 11.0391 Q42.875 16.0156 42.875 26.2188 Q42.875 35.8438 38.5 40.7969 Q34.125 45.75 27.6406 45.75 Q21.0469 45.75 16.7031 40.8203 Q12.3594 35.8906 12.3594 25.9219 Z"
        /><glyph unicode="a" horiz-adv-x="55.615234" d="M40.4375 6.3906 Q35.5469 2.25 31.0312 0.5391 Q26.5156 -1.1719 21.3438 -1.1719 Q12.7969 -1.1719 8.2031 3 Q3.6094 7.1719 3.6094 13.6719 Q3.6094 17.4844 5.3438 20.6328 Q7.0781 23.7812 9.8906 25.6875 Q12.7031 27.5938 16.2188 28.5625 Q18.7969 29.25 24.0312 29.8906 Q34.6719 31.1562 39.7031 32.9062 Q39.75 34.7188 39.75 35.2031 Q39.75 40.5781 37.25 42.7812 Q33.8906 45.75 27.25 45.75 Q21.0469 45.75 18.0938 43.5781 Q15.1406 41.4062 13.7188 35.8906 L5.125 37.0625 Q6.2969 42.5781 8.9844 45.9688 Q11.6719 49.3594 16.75 51.1953 Q21.8281 53.0312 28.5156 53.0312 Q35.1562 53.0312 39.3047 51.4688 Q43.4531 49.9062 45.4062 47.5391 Q47.3594 45.1719 48.1406 41.5469 Q48.5781 39.3125 48.5781 33.4531 L48.5781 21.7344 Q48.5781 9.4688 49.1406 6.2266 Q49.7031 2.9844 51.375 0 L42.1875 0 Q40.8281 2.7344 40.4375 6.3906 ZM39.7031 26.0312 Q34.9062 24.0781 25.3438 22.7031 Q19.9219 21.9219 17.6797 20.9453 Q15.4375 19.9688 14.2109 18.0938 Q12.9844 16.2188 12.9844 13.9219 Q12.9844 10.4062 15.6484 8.0625 Q18.3125 5.7188 23.4375 5.7188 Q28.5156 5.7188 32.4688 7.9375 Q36.4219 10.1562 38.2812 14.0156 Q39.7031 17 39.7031 22.7969 L39.7031 26.0312 Z"
        /><glyph unicode="t" horiz-adv-x="27.783203" d="M25.7812 7.8594 L27.0469 0.0938 Q23.3438 -0.6875 20.4062 -0.6875 Q15.625 -0.6875 12.9922 0.8281 Q10.3594 2.3438 9.2812 4.8125 Q8.2031 7.2812 8.2031 15.1875 L8.2031 45.0156 L1.7656 45.0156 L1.7656 51.8594 L8.2031 51.8594 L8.2031 64.7031 L16.9375 69.9688 L16.9375 51.8594 L25.7812 51.8594 L25.7812 45.0156 L16.9375 45.0156 L16.9375 14.7031 Q16.9375 10.9375 17.4062 9.8672 Q17.875 8.7969 18.9219 8.1562 Q19.9688 7.5156 21.9219 7.5156 Q23.3906 7.5156 25.7812 7.8594 Z"
        /><glyph unicode="i" horiz-adv-x="22.216797" d="M6.6406 61.4688 L6.6406 71.5781 L15.4375 71.5781 L15.4375 61.4688 L6.6406 61.4688 ZM6.6406 0 L6.6406 51.8594 L15.4375 51.8594 L15.4375 0 L6.6406 0 Z"
        /><glyph unicode="c" horiz-adv-x="50.0" d="M40.4375 19 L49.0781 17.875 Q47.6562 8.9375 41.8203 3.8828 Q35.9844 -1.1719 27.4844 -1.1719 Q16.8438 -1.1719 10.375 5.7891 Q3.9062 12.75 3.9062 25.7344 Q3.9062 34.125 6.6875 40.4297 Q9.4688 46.7344 15.1562 49.8828 Q20.8438 53.0312 27.5469 53.0312 Q35.9844 53.0312 41.3594 48.7578 Q46.7344 44.4844 48.25 36.625 L39.7031 35.2969 Q38.4844 40.5312 35.3828 43.1641 Q32.2812 45.7969 27.875 45.7969 Q21.2344 45.7969 17.0859 41.0391 Q12.9375 36.2812 12.9375 25.9844 Q12.9375 15.5312 16.9453 10.7969 Q20.9531 6.0625 27.3906 6.0625 Q32.5625 6.0625 36.0312 9.2344 Q39.5 12.4062 40.4375 19 Z"
        /><glyph unicode="x" horiz-adv-x="50.0" d="M0.7344 0 L19.6719 26.9531 L2.1562 51.8594 L13.1406 51.8594 L21.0938 39.7031 Q23.3438 36.2344 24.7031 33.8906 Q26.8594 37.1094 28.6562 39.5938 L37.4062 51.8594 L47.9062 51.8594 L29.9844 27.4375 L49.2656 0 L38.4844 0 L27.8281 16.1094 L25 20.4531 L11.375 0 L0.7344 0 Z"
        /><glyph unicode="E" horiz-adv-x="66.69922" d="M7.9062 0 L7.9062 71.5781 L59.6719 71.5781 L59.6719 63.1406 L17.3906 63.1406 L17.3906 41.2188 L56.9844 41.2188 L56.9844 32.8125 L17.3906 32.8125 L17.3906 8.4531 L61.3281 8.4531 L61.3281 0 L7.9062 0 Z"
        /><glyph unicode="2" horiz-adv-x="55.615234" d="M50.3438 8.4531 L50.3438 0 L3.0312 0 Q2.9375 3.1719 4.0469 6.1094 Q5.8594 10.9375 9.8359 15.625 Q13.8125 20.3125 21.3438 26.4688 Q33.0156 36.0312 37.1172 41.625 Q41.2188 47.2188 41.2188 52.2031 Q41.2188 57.4219 37.4766 61.0078 Q33.7344 64.5938 27.7344 64.5938 Q21.3906 64.5938 17.5781 60.7891 Q13.7656 56.9844 13.7188 50.25 L4.6875 51.1719 Q5.6094 61.2812 11.6641 66.5781 Q17.7188 71.875 27.9375 71.875 Q38.2344 71.875 44.2422 66.1641 Q50.25 60.4531 50.25 52 Q50.25 47.7031 48.4922 43.5547 Q46.7344 39.4062 42.6562 34.8125 Q38.5781 30.2188 29.1094 22.2188 Q21.1875 15.5781 18.9453 13.2109 Q16.7031 10.8438 15.2344 8.4531 L50.3438 8.4531 Z"
        /><glyph unicode="3" horiz-adv-x="55.615234" d="M4.2031 18.8906 L12.9844 20.0625 Q14.5 12.5938 18.1406 9.2969 Q21.7812 6 27 6 Q33.2031 6 37.4766 10.2969 Q41.75 14.5938 41.75 20.9531 Q41.75 27 37.7969 30.9297 Q33.8438 34.8594 27.7344 34.8594 Q25.25 34.8594 21.5312 33.8906 L22.5156 41.6094 Q23.3906 41.5 23.9219 41.5 Q29.5469 41.5 34.0391 44.4297 Q38.5312 47.3594 38.5312 53.4688 Q38.5312 58.2969 35.2578 61.4766 Q31.9844 64.6562 26.8125 64.6562 Q21.6875 64.6562 18.2656 61.4297 Q14.8438 58.2031 13.875 51.7656 L5.0781 53.3281 Q6.6875 62.1562 12.3984 67.0156 Q18.1094 71.875 26.6094 71.875 Q32.4688 71.875 37.3984 69.3594 Q42.3281 66.8438 44.9453 62.5 Q47.5625 58.1562 47.5625 53.2656 Q47.5625 48.6406 45.0703 44.8281 Q42.5781 41.0156 37.7031 38.7656 Q44.0469 37.3125 47.5625 32.6953 Q51.0781 28.0781 51.0781 21.1406 Q51.0781 11.7656 44.2422 5.25 Q37.4062 -1.2656 26.9531 -1.2656 Q17.5312 -1.2656 11.3047 4.3516 Q5.0781 9.9688 4.2031 18.8906 Z"
        /><glyph unicode="4" horiz-adv-x="55.615234" d="M32.3281 0 L32.3281 17.1406 L1.2656 17.1406 L1.2656 25.2031 L33.9375 71.5781 L41.1094 71.5781 L41.1094 25.2031 L50.7812 25.2031 L50.7812 17.1406 L41.1094 17.1406 L41.1094 0 L32.3281 0 ZM32.3281 25.2031 L32.3281 57.4688 L9.9062 25.2031 L32.3281 25.2031 Z"
        /><glyph unicode="/" horiz-adv-x="27.783203" d="M0 -1.2188 L20.75 72.7969 L27.7812 72.7969 L7.0781 -1.2188 L0 -1.2188 Z"
        /><glyph unicode="s" horiz-adv-x="50.0" d="M3.0781 15.4844 L11.7656 16.8438 Q12.5 11.625 15.8438 8.8438 Q19.1875 6.0625 25.2031 6.0625 Q31.25 6.0625 34.1797 8.5234 Q37.1094 10.9844 37.1094 14.3125 Q37.1094 17.2812 34.5156 19 Q32.7188 20.1719 25.5312 21.9688 Q15.875 24.4219 12.1406 26.2031 Q8.4062 27.9844 6.4766 31.1328 Q4.5469 34.2812 4.5469 38.0938 Q4.5469 41.5469 6.1328 44.5078 Q7.7188 47.4688 10.4531 49.4219 Q12.5 50.9219 16.0391 51.9766 Q19.5781 53.0312 23.6406 53.0312 Q29.7344 53.0312 34.3516 51.2734 Q38.9688 49.5156 41.1641 46.5078 Q43.3594 43.5 44.1875 38.4844 L35.5938 37.3125 Q35.0156 41.3125 32.2031 43.5547 Q29.3906 45.7969 24.2656 45.7969 Q18.2188 45.7969 15.625 43.7969 Q13.0312 41.7969 13.0312 39.1094 Q13.0312 37.4062 14.1094 36.0312 Q15.1875 34.625 17.4844 33.6875 Q18.7969 33.2031 25.25 31.4531 Q34.5781 28.9531 38.2578 27.3672 Q41.9375 25.7812 44.0391 22.7578 Q46.1406 19.7344 46.1406 15.2344 Q46.1406 10.8438 43.5781 6.9609 Q41.0156 3.0781 36.1797 0.9531 Q31.3438 -1.1719 25.25 -1.1719 Q15.1406 -1.1719 9.8438 3.0312 Q4.5469 7.2344 3.0781 15.4844 Z"
        /><glyph unicode="l" horiz-adv-x="22.216797" d="M6.3906 0 L6.3906 71.5781 L15.1875 71.5781 L15.1875 0 L6.3906 0 Z"
        /><glyph unicode="F" horiz-adv-x="61.083984" d="M8.2031 0 L8.2031 71.5781 L56.5 71.5781 L56.5 63.1406 L17.6719 63.1406 L17.6719 40.9688 L51.2656 40.9688 L51.2656 32.5156 L17.6719 32.5156 L17.6719 0 L8.2031 0 Z"
        /><glyph unicode="C" horiz-adv-x="72.2168" d="M58.7969 25.0938 L68.2656 22.7031 Q65.2812 11.0312 57.5469 4.9062 Q49.8125 -1.2188 38.625 -1.2188 Q27.0469 -1.2188 19.7969 3.4922 Q12.5469 8.2031 8.7656 17.1406 Q4.9844 26.0781 4.9844 36.3281 Q4.9844 47.5156 9.2578 55.8359 Q13.5312 64.1562 21.4141 68.4766 Q29.2969 72.7969 38.7656 72.7969 Q49.5156 72.7969 56.8359 67.3281 Q64.1562 61.8594 67.0469 51.9531 L57.7188 49.75 Q55.2188 57.5625 50.4844 61.1328 Q45.75 64.7031 38.5781 64.7031 Q30.3281 64.7031 24.7812 60.7422 Q19.2344 56.7812 16.9922 50.1172 Q14.75 43.4531 14.75 36.375 Q14.75 27.25 17.4062 20.4375 Q20.0625 13.625 25.6797 10.2578 Q31.2969 6.8906 37.8438 6.8906 Q45.7969 6.8906 51.3203 11.4766 Q56.8438 16.0625 58.7969 25.0938 Z"
        /><glyph unicode="," horiz-adv-x="27.783203" d="M8.8906 0 L8.8906 10.0156 L18.8906 10.0156 L18.8906 0 Q18.8906 -5.5156 16.9375 -8.9141 Q14.9844 -12.3125 10.75 -14.1562 L8.2969 -10.4062 Q11.0781 -9.1875 12.3984 -6.8125 Q13.7188 -4.4375 13.875 0 L8.8906 0 Z"
        /><glyph unicode="D" horiz-adv-x="72.2168" d="M7.7188 0 L7.7188 71.5781 L32.375 71.5781 Q40.7188 71.5781 45.125 70.5625 Q51.2656 69.1406 55.6094 65.4375 Q61.2812 60.6406 64.0859 53.1953 Q66.8906 45.75 66.8906 36.1875 Q66.8906 28.0312 64.9922 21.7344 Q63.0938 15.4375 60.1094 11.3047 Q57.125 7.1719 53.5859 4.8047 Q50.0469 2.4375 45.0469 1.2188 Q40.0469 0 33.5469 0 L7.7188 0 ZM17.1875 8.4531 L32.4688 8.4531 Q39.5469 8.4531 43.5781 9.7656 Q47.6094 11.0781 50 13.4844 Q53.375 16.8438 55.25 22.5312 Q57.125 28.2188 57.125 36.3281 Q57.125 47.5625 53.4375 53.5938 Q49.75 59.625 44.4844 61.6719 Q40.6719 63.1406 32.2344 63.1406 L17.1875 63.1406 L17.1875 8.4531 Z"
        /><glyph unicode="=" horiz-adv-x="58.398438" d="M52.8281 42.0938 L5.5625 42.0938 L5.5625 50.2969 L52.8281 50.2969 L52.8281 42.0938 ZM52.8281 20.3594 L5.5625 20.3594 L5.5625 28.5625 L52.8281 28.5625 L52.8281 20.3594 Z"
        /><glyph unicode="S" horiz-adv-x="66.69922" d="M4.5 23 L13.4219 23.7812 Q14.0625 18.4062 16.3828 14.9688 Q18.7031 11.5312 23.5859 9.4062 Q28.4688 7.2812 34.5781 7.2812 Q39.9844 7.2812 44.1406 8.8906 Q48.2969 10.5 50.3203 13.3047 Q52.3438 16.1094 52.3438 19.4375 Q52.3438 22.7969 50.3906 25.3125 Q48.4375 27.8281 43.9531 29.5469 Q41.0625 30.6719 31.2031 33.0391 Q21.3438 35.4062 17.3906 37.5 Q12.25 40.1875 9.7422 44.1641 Q7.2344 48.1406 7.2344 53.0781 Q7.2344 58.5 10.3047 63.2109 Q13.375 67.9219 19.2891 70.3594 Q25.2031 72.7969 32.4219 72.7969 Q40.375 72.7969 46.4609 70.2344 Q52.5469 67.6719 55.8125 62.6953 Q59.0781 57.7188 59.3281 51.4219 L50.25 50.7344 Q49.5156 57.5156 45.2891 60.9844 Q41.0625 64.4531 32.8125 64.4531 Q24.2188 64.4531 20.2891 61.3047 Q16.3594 58.1562 16.3594 53.7188 Q16.3594 49.8594 19.1406 47.3594 Q21.875 44.875 33.4219 42.2656 Q44.9688 39.6562 49.2656 37.7031 Q55.5156 34.8125 58.4922 30.3984 Q61.4688 25.9844 61.4688 20.2188 Q61.4688 14.5 58.2031 9.4453 Q54.9375 4.3906 48.8047 1.5859 Q42.6719 -1.2188 35.0156 -1.2188 Q25.2969 -1.2188 18.7266 1.6094 Q12.1562 4.4375 8.4219 10.1328 Q4.6875 15.8281 4.5 23 Z"
        /><glyph unicode="." horiz-adv-x="27.783203" d="M9.0781 0 L9.0781 10.0156 L19.0938 10.0156 L19.0938 0 L9.0781 0 Z"
        /><glyph unicode="6" horiz-adv-x="55.615234" d="M49.75 54.0469 L41.0156 53.375 Q39.8438 58.5469 37.7031 60.8906 Q34.125 64.6562 28.9062 64.6562 Q24.7031 64.6562 21.5312 62.3125 Q17.3906 59.2812 14.9922 53.4688 Q12.5938 47.6562 12.5 36.9219 Q15.6719 41.75 20.2656 44.0938 Q24.8594 46.4375 29.8906 46.4375 Q38.6719 46.4375 44.8516 39.9688 Q51.0312 33.5 51.0312 23.25 Q51.0312 16.5 48.125 10.7188 Q45.2188 4.9375 40.1406 1.8594 Q35.0625 -1.2188 28.6094 -1.2188 Q17.625 -1.2188 10.6953 6.8594 Q3.7656 14.9375 3.7656 33.5 Q3.7656 54.25 11.4219 63.6719 Q18.1094 71.875 29.4375 71.875 Q37.8906 71.875 43.2891 67.1406 Q48.6875 62.4062 49.75 54.0469 ZM13.875 23.1875 Q13.875 18.6562 15.7969 14.5078 Q17.7188 10.3594 21.1875 8.1797 Q24.6562 6 28.4688 6 Q34.0312 6 38.0391 10.4922 Q42.0469 14.9844 42.0469 22.7031 Q42.0469 30.125 38.0859 34.3984 Q34.125 38.6719 28.125 38.6719 Q22.1719 38.6719 18.0234 34.3984 Q13.875 30.125 13.875 23.1875 Z"
        /><glyph unicode="7" horiz-adv-x="55.615234" d="M4.7344 62.2031 L4.7344 70.6562 L51.0781 70.6562 L51.0781 63.8125 Q44.2344 56.5469 37.5234 44.4844 Q30.8125 32.4219 27.1562 19.6719 Q24.5156 10.6875 23.7812 0 L14.75 0 Q14.8906 8.4531 18.0625 20.4141 Q21.2344 32.375 27.1719 43.4844 Q33.1094 54.5938 39.7969 62.2031 L4.7344 62.2031 Z"
        /><glyph unicode="d" horiz-adv-x="55.615234" d="M40.2344 0 L40.2344 6.5469 Q35.2969 -1.1719 25.7344 -1.1719 Q19.5312 -1.1719 14.3281 2.25 Q9.125 5.6719 6.2734 11.7969 Q3.4219 17.9219 3.4219 25.875 Q3.4219 33.6406 6.0078 39.9688 Q8.5938 46.2969 13.7734 49.6641 Q18.9531 53.0312 25.3438 53.0312 Q30.0312 53.0312 33.6953 51.0547 Q37.3594 49.0781 39.6562 45.9062 L39.6562 71.5781 L48.3906 71.5781 L48.3906 0 L40.2344 0 ZM12.4531 25.875 Q12.4531 15.9219 16.6484 10.9922 Q20.8438 6.0625 26.5625 6.0625 Q32.3281 6.0625 36.3516 10.7734 Q40.375 15.4844 40.375 25.1406 Q40.375 35.7969 36.2734 40.7734 Q32.1719 45.75 26.1719 45.75 Q20.3125 45.75 16.3828 40.9688 Q12.4531 36.1875 12.4531 25.875 Z"
        /><glyph unicode="9" horiz-adv-x="55.615234" d="M5.4688 16.5469 L13.9219 17.3281 Q14.9844 11.375 18.0156 8.6875 Q21.0469 6 25.7812 6 Q29.8281 6 32.8828 7.8594 Q35.9375 9.7188 37.8906 12.8203 Q39.8438 15.9219 41.1641 21.1953 Q42.4844 26.4688 42.4844 31.9375 Q42.4844 32.5156 42.4375 33.6875 Q39.7969 29.5 35.2344 26.8828 Q30.6719 24.2656 25.3438 24.2656 Q16.4531 24.2656 10.3047 30.7109 Q4.1562 37.1562 4.1562 47.7031 Q4.1562 58.5938 10.5781 65.2344 Q17 71.875 26.6562 71.875 Q33.6406 71.875 39.4297 68.1172 Q45.2188 64.3594 48.2188 57.3984 Q51.2188 50.4375 51.2188 37.25 Q51.2188 23.5312 48.2422 15.4062 Q45.2656 7.2812 39.3828 3.0312 Q33.5 -1.2188 25.5938 -1.2188 Q17.1875 -1.2188 11.8672 3.4453 Q6.5469 8.1094 5.4688 16.5469 ZM41.4531 48.1406 Q41.4531 55.7188 37.4297 60.1562 Q33.4062 64.5938 27.7344 64.5938 Q21.875 64.5938 17.5312 59.8125 Q13.1875 55.0312 13.1875 47.4062 Q13.1875 40.5781 17.3125 36.3047 Q21.4375 32.0312 27.4844 32.0312 Q33.5938 32.0312 37.5234 36.3047 Q41.4531 40.5781 41.4531 48.1406 Z"
      /></font
    ></defs
    ><g style="fill:white; stroke:white;"
    ><rect x="0" y="0" width="560" style="clip-path:url(#clipPath1); stroke:none;" height="420"
    /></g
    ><g style="fill:white; text-rendering:optimizeSpeed; color-rendering:optimizeSpeed; image-rendering:optimizeSpeed; shape-rendering:crispEdges; color-interpolation:sRGB; stroke:white;"
    ><rect x="0" width="560" height="420" y="0" style="stroke:none;"
      /><path style="stroke:none;" d="M75 349 L507 349 L507 31 L75 31 Z"
    /></g
    ><g style="fill:rgb(38,38,38); text-rendering:geometricPrecision; color-rendering:optimizeQuality; image-rendering:optimizeQuality; stroke-linejoin:round; color-interpolation:linearRGB; stroke:rgb(38,38,38); stroke-width:2.6667;"
    ><line y2="349" style="fill:none;" x1="75" x2="507" y1="349"
      /><line y2="31" style="fill:none;" x1="75" x2="507" y1="31"
      /><line y2="344.68" style="fill:none;" x1="213.7603" x2="213.7603" y1="349"
      /><line y2="344.68" style="fill:none;" x1="412.2814" x2="412.2814" y1="349"
      /><line y2="35.32" style="fill:none;" x1="213.7603" x2="213.7603" y1="31"
      /><line y2="35.32" style="fill:none;" x1="412.2814" x2="412.2814" y1="31"
      /><line y2="346.84" style="fill:none;" x1="75" x2="75" y1="349"
      /><line y2="346.84" style="fill:none;" x1="109.9578" x2="109.9578" y1="349"
      /><line y2="346.84" style="fill:none;" x1="134.7608" x2="134.7608" y1="349"
      /><line y2="346.84" style="fill:none;" x1="153.9995" x2="153.9995" y1="349"
      /><line y2="346.84" style="fill:none;" x1="169.7186" x2="169.7186" y1="349"
      /><line y2="346.84" style="fill:none;" x1="183.009" x2="183.009" y1="349"
      /><line y2="346.84" style="fill:none;" x1="194.5216" x2="194.5216" y1="349"
      /><line y2="346.84" style="fill:none;" x1="204.6765" x2="204.6765" y1="349"
      /><line y2="346.84" style="fill:none;" x1="213.7603" x2="213.7603" y1="349"
      /><line y2="346.84" style="fill:none;" x1="273.5211" x2="273.5211" y1="349"
      /><line y2="346.84" style="fill:none;" x1="308.4789" x2="308.4789" y1="349"
      /><line y2="346.84" style="fill:none;" x1="333.2819" x2="333.2819" y1="349"
      /><line y2="346.84" style="fill:none;" x1="352.5206" x2="352.5206" y1="349"
      /><line y2="346.84" style="fill:none;" x1="368.2397" x2="368.2397" y1="349"
      /><line y2="346.84" style="fill:none;" x1="381.5301" x2="381.5301" y1="349"
      /><line y2="346.84" style="fill:none;" x1="393.0427" x2="393.0427" y1="349"
      /><line y2="346.84" style="fill:none;" x1="403.1975" x2="403.1975" y1="349"
      /><line y2="346.84" style="fill:none;" x1="412.2814" x2="412.2814" y1="349"
      /><line y2="346.84" style="fill:none;" x1="472.0422" x2="472.0422" y1="349"
      /><line y2="346.84" style="fill:none;" x1="507" x2="507" y1="349"
      /><line y2="33.16" style="fill:none;" x1="75" x2="75" y1="31"
      /><line y2="33.16" style="fill:none;" x1="109.9578" x2="109.9578" y1="31"
      /><line y2="33.16" style="fill:none;" x1="134.7608" x2="134.7608" y1="31"
      /><line y2="33.16" style="fill:none;" x1="153.9995" x2="153.9995" y1="31"
      /><line y2="33.16" style="fill:none;" x1="169.7186" x2="169.7186" y1="31"
      /><line y2="33.16" style="fill:none;" x1="183.009" x2="183.009" y1="31"
      /><line y2="33.16" style="fill:none;" x1="194.5216" x2="194.5216" y1="31"
      /><line y2="33.16" style="fill:none;" x1="204.6765" x2="204.6765" y1="31"
      /><line y2="33.16" style="fill:none;" x1="213.7603" x2="213.7603" y1="31"
      /><line y2="33.16" style="fill:none;" x1="273.5211" x2="273.5211" y1="31"
      /><line y2="33.16" style="fill:none;" x1="308.4789" x2="308.4789" y1="31"
      /><line y2="33.16" style="fill:none;" x1="333.2819" x2="333.2819" y1="31"
      /><line y2="33.16" style="fill:none;" x1="352.5206" x2="352.5206" y1="31"
      /><line y2="33.16" style="fill:none;" x1="368.2397" x2="368.2397" y1="31"
      /><line y2="33.16" style="fill:none;" x1="381.5301" x2="381.5301" y1="31"
      /><line y2="33.16" style="fill:none;" x1="393.0427" x2="393.0427" y1="31"
      /><line y2="33.16" style="fill:none;" x1="403.1975" x2="403.1975" y1="31"
      /><line y2="33.16" style="fill:none;" x1="412.2814" x2="412.2814" y1="31"
      /><line y2="33.16" style="fill:none;" x1="472.0422" x2="472.0422" y1="31"
      /><line y2="33.16" style="fill:none;" x1="507" x2="507" y1="31"
    /></g
    ><g transform="translate(197,384)" style="font-size:21px; fill:rgb(38,38,38); text-rendering:geometricPrecision; color-rendering:optimizeQuality; image-rendering:optimizeQuality; font-family:sans-serif; color-interpolation:linearRGB; stroke:rgb(38,38,38);"
    ><text x="0" xml:space="preserve" y="0" style="stroke:none;"
      >10</text
    ></g
    ><g transform="translate(221,374)" style="font-size:17px; fill:rgb(38,38,38); text-rendering:geometricPrecision; color-rendering:optimizeQuality; image-rendering:optimizeQuality; font-family:sans-serif; color-interpolation:linearRGB; stroke:rgb(38,38,38);"
    ><text x="0" xml:space="preserve" y="0" style="stroke:none;"
      >0</text
    ></g
    ><g transform="translate(395,384)" style="font-size:21px; fill:rgb(38,38,38); text-rendering:geometricPrecision; color-rendering:optimizeQuality; image-rendering:optimizeQuality; font-family:sans-serif; color-interpolation:linearRGB; stroke:rgb(38,38,38);"
    ><text x="0" xml:space="preserve" y="0" style="stroke:none;"
      >10</text
    ></g
    ><g transform="translate(419,374)" style="font-size:17px; fill:rgb(38,38,38); text-rendering:geometricPrecision; color-rendering:optimizeQuality; image-rendering:optimizeQuality; font-family:sans-serif; color-interpolation:linearRGB; stroke:rgb(38,38,38);"
    ><text x="0" xml:space="preserve" y="0" style="stroke:none;"
      >1</text
    ></g
    ><g transform="translate(291.0002,390.2667)" style="font-size:23px; fill:rgb(38,38,38); text-rendering:geometricPrecision; color-rendering:optimizeQuality; image-rendering:optimizeQuality; font-family:sans-serif; color-interpolation:linearRGB; stroke:rgb(38,38,38);"
    ><text x="-109.5" xml:space="preserve" y="24" style="stroke:none;"
      >Excitation power(uW)</text
    ></g
    ><g style="fill:rgb(38,38,38); text-rendering:geometricPrecision; color-rendering:optimizeQuality; image-rendering:optimizeQuality; stroke-linejoin:round; color-interpolation:linearRGB; stroke:rgb(38,38,38); stroke-width:2.6667;"
    ><line y2="31" style="fill:none;" x1="75" x2="75" y1="349"
      /><line y2="31" style="fill:none;" x1="507" x2="507" y1="349"
      /><line y2="290.1187" style="fill:none;" x1="75" x2="79.32" y1="290.1187"
      /><line y2="177.5088" style="fill:none;" x1="75" x2="79.32" y1="177.5088"
      /><line y2="64.8989" style="fill:none;" x1="75" x2="79.32" y1="64.8989"
      /><line y2="290.1187" style="fill:none;" x1="507" x2="502.68" y1="290.1187"
      /><line y2="177.5088" style="fill:none;" x1="507" x2="502.68" y1="177.5088"
      /><line y2="64.8989" style="fill:none;" x1="507" x2="502.68" y1="64.8989"
      /><line y2="349" style="fill:none;" x1="75" x2="77.16" y1="349"
      /><line y2="334.9307" style="fill:none;" x1="75" x2="77.16" y1="334.9307"
      /><line y2="324.0176" style="fill:none;" x1="75" x2="77.16" y1="324.0176"
      /><line y2="315.101" style="fill:none;" x1="75" x2="77.16" y1="315.101"
      /><line y2="307.5622" style="fill:none;" x1="75" x2="77.16" y1="307.5622"
      /><line y2="301.0317" style="fill:none;" x1="75" x2="77.16" y1="301.0317"
      /><line y2="295.2715" style="fill:none;" x1="75" x2="77.16" y1="295.2715"
      /><line y2="290.1187" style="fill:none;" x1="75" x2="77.16" y1="290.1187"
      /><line y2="256.2198" style="fill:none;" x1="75" x2="77.16" y1="256.2198"
      /><line y2="236.3901" style="fill:none;" x1="75" x2="77.16" y1="236.3901"
      /><line y2="222.3208" style="fill:none;" x1="75" x2="77.16" y1="222.3208"
      /><line y2="211.4078" style="fill:none;" x1="75" x2="77.16" y1="211.4078"
      /><line y2="202.4912" style="fill:none;" x1="75" x2="77.16" y1="202.4912"
      /><line y2="194.9523" style="fill:none;" x1="75" x2="77.16" y1="194.9523"
      /><line y2="188.4218" style="fill:none;" x1="75" x2="77.16" y1="188.4218"
      /><line y2="182.6616" style="fill:none;" x1="75" x2="77.16" y1="182.6616"
      /><line y2="177.5088" style="fill:none;" x1="75" x2="77.16" y1="177.5088"
      /><line y2="143.6099" style="fill:none;" x1="75" x2="77.16" y1="143.6099"
      /><line y2="123.7803" style="fill:none;" x1="75" x2="77.16" y1="123.7803"
      /><line y2="109.7109" style="fill:none;" x1="75" x2="77.16" y1="109.7109"
      /><line y2="98.7979" style="fill:none;" x1="75" x2="77.16" y1="98.7979"
      /><line y2="89.8813" style="fill:none;" x1="75" x2="77.16" y1="89.8813"
      /><line y2="82.3424" style="fill:none;" x1="75" x2="77.16" y1="82.3424"
      /><line y2="75.812" style="fill:none;" x1="75" x2="77.16" y1="75.812"
      /><line y2="70.0517" style="fill:none;" x1="75" x2="77.16" y1="70.0517"
      /><line y2="64.8989" style="fill:none;" x1="75" x2="77.16" y1="64.8989"
      /><line y2="31" style="fill:none;" x1="75" x2="77.16" y1="31"
      /><line y2="349" style="fill:none;" x1="507" x2="504.84" y1="349"
      /><line y2="334.9307" style="fill:none;" x1="507" x2="504.84" y1="334.9307"
      /><line y2="324.0176" style="fill:none;" x1="507" x2="504.84" y1="324.0176"
      /><line y2="315.101" style="fill:none;" x1="507" x2="504.84" y1="315.101"
      /><line y2="307.5622" style="fill:none;" x1="507" x2="504.84" y1="307.5622"
      /><line y2="301.0317" style="fill:none;" x1="507" x2="504.84" y1="301.0317"
      /><line y2="295.2715" style="fill:none;" x1="507" x2="504.84" y1="295.2715"
      /><line y2="290.1187" style="fill:none;" x1="507" x2="504.84" y1="290.1187"
      /><line y2="256.2198" style="fill:none;" x1="507" x2="504.84" y1="256.2198"
      /><line y2="236.3901" style="fill:none;" x1="507" x2="504.84" y1="236.3901"
      /><line y2="222.3208" style="fill:none;" x1="507" x2="504.84" y1="222.3208"
      /><line y2="211.4078" style="fill:none;" x1="507" x2="504.84" y1="211.4078"
      /><line y2="202.4912" style="fill:none;" x1="507" x2="504.84" y1="202.4912"
      /><line y2="194.9523" style="fill:none;" x1="507" x2="504.84" y1="194.9523"
      /><line y2="188.4218" style="fill:none;" x1="507" x2="504.84" y1="188.4218"
      /><line y2="182.6616" style="fill:none;" x1="507" x2="504.84" y1="182.6616"
      /><line y2="177.5088" style="fill:none;" x1="507" x2="504.84" y1="177.5088"
      /><line y2="143.6099" style="fill:none;" x1="507" x2="504.84" y1="143.6099"
      /><line y2="123.7803" style="fill:none;" x1="507" x2="504.84" y1="123.7803"
      /><line y2="109.7109" style="fill:none;" x1="507" x2="504.84" y1="109.7109"
      /><line y2="98.7979" style="fill:none;" x1="507" x2="504.84" y1="98.7979"
      /><line y2="89.8813" style="fill:none;" x1="507" x2="504.84" y1="89.8813"
      /><line y2="82.3424" style="fill:none;" x1="507" x2="504.84" y1="82.3424"
      /><line y2="75.812" style="fill:none;" x1="507" x2="504.84" y1="75.812"
      /><line y2="70.0517" style="fill:none;" x1="507" x2="504.84" y1="70.0517"
      /><line y2="64.8989" style="fill:none;" x1="507" x2="504.84" y1="64.8989"
      /><line y2="31" style="fill:none;" x1="507" x2="504.84" y1="31"
    /></g
    ><g transform="translate(34,302)" style="font-size:21px; fill:rgb(38,38,38); text-rendering:geometricPrecision; color-rendering:optimizeQuality; image-rendering:optimizeQuality; font-family:sans-serif; color-interpolation:linearRGB; stroke:rgb(38,38,38);"
    ><text x="0" xml:space="preserve" y="0" style="stroke:none;"
      >10</text
    ></g
    ><g transform="translate(58,292)" style="font-size:17px; fill:rgb(38,38,38); text-rendering:geometricPrecision; color-rendering:optimizeQuality; image-rendering:optimizeQuality; font-family:sans-serif; color-interpolation:linearRGB; stroke:rgb(38,38,38);"
    ><text x="0" xml:space="preserve" y="0" style="stroke:none;"
      >2</text
    ></g
    ><g transform="translate(34,190)" style="font-size:21px; fill:rgb(38,38,38); text-rendering:geometricPrecision; color-rendering:optimizeQuality; image-rendering:optimizeQuality; font-family:sans-serif; color-interpolation:linearRGB; stroke:rgb(38,38,38);"
    ><text x="0" xml:space="preserve" y="0" style="stroke:none;"
      >10</text
    ></g
    ><g transform="translate(58,180)" style="font-size:17px; fill:rgb(38,38,38); text-rendering:geometricPrecision; color-rendering:optimizeQuality; image-rendering:optimizeQuality; font-family:sans-serif; color-interpolation:linearRGB; stroke:rgb(38,38,38);"
    ><text x="0" xml:space="preserve" y="0" style="stroke:none;"
      >3</text
    ></g
    ><g transform="translate(34,77)" style="font-size:21px; fill:rgb(38,38,38); text-rendering:geometricPrecision; color-rendering:optimizeQuality; image-rendering:optimizeQuality; font-family:sans-serif; color-interpolation:linearRGB; stroke:rgb(38,38,38);"
    ><text x="0" xml:space="preserve" y="0" style="stroke:none;"
      >10</text
    ></g
    ><g transform="translate(58,67)" style="font-size:17px; fill:rgb(38,38,38); text-rendering:geometricPrecision; color-rendering:optimizeQuality; image-rendering:optimizeQuality; font-family:sans-serif; color-interpolation:linearRGB; stroke:rgb(38,38,38);"
    ><text x="0" xml:space="preserve" y="0" style="stroke:none;"
      >4</text
    ></g
    ><g transform="translate(30.0667,189.9998) rotate(-90)" style="font-size:23px; fill:rgb(38,38,38); text-rendering:geometricPrecision; color-rendering:optimizeQuality; image-rendering:optimizeQuality; font-family:sans-serif; color-interpolation:linearRGB; stroke:rgb(38,38,38);"
    ><text x="-123" xml:space="preserve" y="-6" style="stroke:none;"
      >Fluorescence (counts/s)</text
    ></g
    ><g style="stroke-linecap:butt; fill:blue; text-rendering:geometricPrecision; color-rendering:optimizeQuality; image-rendering:optimizeQuality; stroke-linejoin:round; color-interpolation:linearRGB; stroke:blue; stroke-width:2.6667;"
    ><line y2="332.9861" style="fill:none;" x1="153.0676" x2="153.0676" y1="241.308"
      /><line y2="261.2103" style="fill:none;" x1="193.3416" x2="193.3416" y1="216.8111"
      /><line y2="231.6837" style="fill:none;" x1="224.6496" x2="224.6496" y1="200.2683"
      /><line y2="205.6442" style="fill:none;" x1="256.1942" x2="256.1942" y1="183.027"
      /><line y2="172.4741" style="fill:none;" x1="297.5799" x2="297.5799" y1="156.3699"
      /><line y2="148.7433" style="fill:none;" x1="329.5094" x2="329.5094" y1="136.0256"
      /><line y2="115.5075" style="fill:none;" x1="383.4785" x2="383.4785" y1="106.9374"
      /><line y2="102.1727" style="fill:none;" x1="403.556" x2="403.556" y1="94.7127"
      /><line y2="86.0433" style="fill:none;" x1="431.9072" x2="431.9072" y1="79.6313"
      /><line y2="59.9952" style="fill:none;" x1="478.9216" x2="478.9216" y1="55.2021"
      /><line y2="211.3122" style="fill:none;" x1="153.0676" x2="153.0676" y1="241.308"
      /><line y2="193.9289" style="fill:none;" x1="193.3416" x2="193.3416" y1="216.8111"
      /><line y2="181.2954" style="fill:none;" x1="224.6496" x2="224.6496" y1="200.2683"
      /><line y2="167.6213" style="fill:none;" x1="256.1942" x2="256.1942" y1="183.027"
      /><line y2="144.2754" style="fill:none;" x1="297.5799" x2="297.5799" y1="156.3699"
      /><line y2="125.9419" style="fill:none;" x1="329.5094" x2="329.5094" y1="136.0256"
      /><line y2="99.6476" style="fill:none;" x1="383.4785" x2="383.4785" y1="106.9374"
      /><line y2="88.2414" style="fill:none;" x1="403.556" x2="403.556" y1="94.7127"
      /><line y2="73.9634" style="fill:none;" x1="431.9072" x2="431.9072" y1="79.6313"
      /><line y2="50.837" style="fill:none;" x1="478.9216" x2="478.9216" y1="55.2021"
      /><path d="M-3 -3 L-3 3 L3 3 L3 -3 Z" style="fill:none; stroke-linejoin:miter;" transform="translate(153.0676,241.308)"
      /><path d="M-3 -3 L-3 3 L3 3 L3 -3 Z" style="fill:none; stroke-linejoin:miter;" transform="translate(193.3416,216.8111)"
      /><path d="M-3 -3 L-3 3 L3 3 L3 -3 Z" style="fill:none; stroke-linejoin:miter;" transform="translate(224.6496,200.2683)"
      /><path d="M-3 -3 L-3 3 L3 3 L3 -3 Z" style="fill:none; stroke-linejoin:miter;" transform="translate(256.1942,183.027)"
      /><path d="M-3 -3 L-3 3 L3 3 L3 -3 Z" style="fill:none; stroke-linejoin:miter;" transform="translate(297.5799,156.3699)"
      /><path d="M-3 -3 L-3 3 L3 3 L3 -3 Z" style="fill:none; stroke-linejoin:miter;" transform="translate(329.5094,136.0256)"
      /><path d="M-3 -3 L-3 3 L3 3 L3 -3 Z" style="fill:none; stroke-linejoin:miter;" transform="translate(383.4785,106.9374)"
      /><path d="M-3 -3 L-3 3 L3 3 L3 -3 Z" style="fill:none; stroke-linejoin:miter;" transform="translate(403.556,94.7127)"
      /><path d="M-3 -3 L-3 3 L3 3 L3 -3 Z" style="fill:none; stroke-linejoin:miter;" transform="translate(431.9072,79.6313)"
      /><path d="M-3 -3 L-3 3 L3 3 L3 -3 Z" style="fill:none; stroke-linejoin:miter;" transform="translate(478.9216,55.2021)"
    /></g
    ><g transform="translate(153.0676,332.9861)" style="fill:blue; text-rendering:geometricPrecision; color-rendering:optimizeQuality; image-rendering:optimizeQuality; color-interpolation:linearRGB; stroke:blue;"
    ><path style="stroke:none;" d="M-4 0 L4 0"
    /></g
    ><g transform="translate(153.0676,332.9861)" style="stroke-linecap:butt; fill:blue; text-rendering:geometricPrecision; color-rendering:optimizeQuality; image-rendering:optimizeQuality; color-interpolation:linearRGB; stroke:blue; stroke-width:2.6667;"
    ><path style="fill:none;" d="M-4 0 L4 0"
    /></g
    ><g transform="translate(193.3416,261.2103)" style="fill:blue; text-rendering:geometricPrecision; color-rendering:optimizeQuality; image-rendering:optimizeQuality; color-interpolation:linearRGB; stroke:blue;"
    ><path style="stroke:none;" d="M-4 0 L4 0"
    /></g
    ><g transform="translate(193.3416,261.2103)" style="stroke-linecap:butt; fill:blue; text-rendering:geometricPrecision; color-rendering:optimizeQuality; image-rendering:optimizeQuality; color-interpolation:linearRGB; stroke:blue; stroke-width:2.6667;"
    ><path style="fill:none;" d="M-4 0 L4 0"
    /></g
    ><g transform="translate(224.6496,231.6837)" style="fill:blue; text-rendering:geometricPrecision; color-rendering:optimizeQuality; image-rendering:optimizeQuality; color-interpolation:linearRGB; stroke:blue;"
    ><path style="stroke:none;" d="M-4 0 L4 0"
    /></g
    ><g transform="translate(224.6496,231.6837)" style="stroke-linecap:butt; fill:blue; text-rendering:geometricPrecision; color-rendering:optimizeQuality; image-rendering:optimizeQuality; color-interpolation:linearRGB; stroke:blue; stroke-width:2.6667;"
    ><path style="fill:none;" d="M-4 0 L4 0"
    /></g
    ><g transform="translate(256.1942,205.6442)" style="fill:blue; text-rendering:geometricPrecision; color-rendering:optimizeQuality; image-rendering:optimizeQuality; color-interpolation:linearRGB; stroke:blue;"
    ><path style="stroke:none;" d="M-4 0 L4 0"
    /></g
    ><g transform="translate(256.1942,205.6442)" style="stroke-linecap:butt; fill:blue; text-rendering:geometricPrecision; color-rendering:optimizeQuality; image-rendering:optimizeQuality; color-interpolation:linearRGB; stroke:blue; stroke-width:2.6667;"
    ><path style="fill:none;" d="M-4 0 L4 0"
    /></g
    ><g transform="translate(297.5799,172.4741)" style="fill:blue; text-rendering:geometricPrecision; color-rendering:optimizeQuality; image-rendering:optimizeQuality; color-interpolation:linearRGB; stroke:blue;"
    ><path style="stroke:none;" d="M-4 0 L4 0"
    /></g
    ><g transform="translate(297.5799,172.4741)" style="stroke-linecap:butt; fill:blue; text-rendering:geometricPrecision; color-rendering:optimizeQuality; image-rendering:optimizeQuality; color-interpolation:linearRGB; stroke:blue; stroke-width:2.6667;"
    ><path style="fill:none;" d="M-4 0 L4 0"
    /></g
    ><g transform="translate(329.5094,148.7433)" style="fill:blue; text-rendering:geometricPrecision; color-rendering:optimizeQuality; image-rendering:optimizeQuality; color-interpolation:linearRGB; stroke:blue;"
    ><path style="stroke:none;" d="M-4 0 L4 0"
    /></g
    ><g transform="translate(329.5094,148.7433)" style="stroke-linecap:butt; fill:blue; text-rendering:geometricPrecision; color-rendering:optimizeQuality; image-rendering:optimizeQuality; color-interpolation:linearRGB; stroke:blue; stroke-width:2.6667;"
    ><path style="fill:none;" d="M-4 0 L4 0"
    /></g
    ><g transform="translate(383.4785,115.5075)" style="fill:blue; text-rendering:geometricPrecision; color-rendering:optimizeQuality; image-rendering:optimizeQuality; color-interpolation:linearRGB; stroke:blue;"
    ><path style="stroke:none;" d="M-4 0 L4 0"
    /></g
    ><g transform="translate(383.4785,115.5075)" style="stroke-linecap:butt; fill:blue; text-rendering:geometricPrecision; color-rendering:optimizeQuality; image-rendering:optimizeQuality; color-interpolation:linearRGB; stroke:blue; stroke-width:2.6667;"
    ><path style="fill:none;" d="M-4 0 L4 0"
    /></g
    ><g transform="translate(403.556,102.1727)" style="fill:blue; text-rendering:geometricPrecision; color-rendering:optimizeQuality; image-rendering:optimizeQuality; color-interpolation:linearRGB; stroke:blue;"
    ><path style="stroke:none;" d="M-4 0 L4 0"
    /></g
    ><g transform="translate(403.556,102.1727)" style="stroke-linecap:butt; fill:blue; text-rendering:geometricPrecision; color-rendering:optimizeQuality; image-rendering:optimizeQuality; color-interpolation:linearRGB; stroke:blue; stroke-width:2.6667;"
    ><path style="fill:none;" d="M-4 0 L4 0"
    /></g
    ><g transform="translate(431.9072,86.0433)" style="fill:blue; text-rendering:geometricPrecision; color-rendering:optimizeQuality; image-rendering:optimizeQuality; color-interpolation:linearRGB; stroke:blue;"
    ><path style="stroke:none;" d="M-4 0 L4 0"
    /></g
    ><g transform="translate(431.9072,86.0433)" style="stroke-linecap:butt; fill:blue; text-rendering:geometricPrecision; color-rendering:optimizeQuality; image-rendering:optimizeQuality; color-interpolation:linearRGB; stroke:blue; stroke-width:2.6667;"
    ><path style="fill:none;" d="M-4 0 L4 0"
    /></g
    ><g transform="translate(478.9216,59.9952)" style="fill:blue; text-rendering:geometricPrecision; color-rendering:optimizeQuality; image-rendering:optimizeQuality; color-interpolation:linearRGB; stroke:blue;"
    ><path style="stroke:none;" d="M-4 0 L4 0"
    /></g
    ><g transform="translate(478.9216,59.9952)" style="stroke-linecap:butt; fill:blue; text-rendering:geometricPrecision; color-rendering:optimizeQuality; image-rendering:optimizeQuality; color-interpolation:linearRGB; stroke:blue; stroke-width:2.6667;"
    ><path style="fill:none;" d="M-4 0 L4 0"
    /></g
    ><g transform="translate(153.0676,211.3122)" style="fill:blue; text-rendering:geometricPrecision; color-rendering:optimizeQuality; image-rendering:optimizeQuality; color-interpolation:linearRGB; stroke:blue;"
    ><path style="stroke:none;" d="M-4 0 L4 0"
    /></g
    ><g transform="translate(153.0676,211.3122)" style="stroke-linecap:butt; fill:blue; text-rendering:geometricPrecision; color-rendering:optimizeQuality; image-rendering:optimizeQuality; color-interpolation:linearRGB; stroke:blue; stroke-width:2.6667;"
    ><path style="fill:none;" d="M-4 0 L4 0"
    /></g
    ><g transform="translate(193.3416,193.9289)" style="fill:blue; text-rendering:geometricPrecision; color-rendering:optimizeQuality; image-rendering:optimizeQuality; color-interpolation:linearRGB; stroke:blue;"
    ><path style="stroke:none;" d="M-4 0 L4 0"
    /></g
    ><g transform="translate(193.3416,193.9289)" style="stroke-linecap:butt; fill:blue; text-rendering:geometricPrecision; color-rendering:optimizeQuality; image-rendering:optimizeQuality; color-interpolation:linearRGB; stroke:blue; stroke-width:2.6667;"
    ><path style="fill:none;" d="M-4 0 L4 0"
    /></g
    ><g transform="translate(224.6496,181.2954)" style="fill:blue; text-rendering:geometricPrecision; color-rendering:optimizeQuality; image-rendering:optimizeQuality; color-interpolation:linearRGB; stroke:blue;"
    ><path style="stroke:none;" d="M-4 0 L4 0"
    /></g
    ><g transform="translate(224.6496,181.2954)" style="stroke-linecap:butt; fill:blue; text-rendering:geometricPrecision; color-rendering:optimizeQuality; image-rendering:optimizeQuality; color-interpolation:linearRGB; stroke:blue; stroke-width:2.6667;"
    ><path style="fill:none;" d="M-4 0 L4 0"
    /></g
    ><g transform="translate(256.1942,167.6213)" style="fill:blue; text-rendering:geometricPrecision; color-rendering:optimizeQuality; image-rendering:optimizeQuality; color-interpolation:linearRGB; stroke:blue;"
    ><path style="stroke:none;" d="M-4 0 L4 0"
    /></g
    ><g transform="translate(256.1942,167.6213)" style="stroke-linecap:butt; fill:blue; text-rendering:geometricPrecision; color-rendering:optimizeQuality; image-rendering:optimizeQuality; color-interpolation:linearRGB; stroke:blue; stroke-width:2.6667;"
    ><path style="fill:none;" d="M-4 0 L4 0"
    /></g
    ><g transform="translate(297.5799,144.2754)" style="fill:blue; text-rendering:geometricPrecision; color-rendering:optimizeQuality; image-rendering:optimizeQuality; color-interpolation:linearRGB; stroke:blue;"
    ><path style="stroke:none;" d="M-4 0 L4 0"
    /></g
    ><g transform="translate(297.5799,144.2754)" style="stroke-linecap:butt; fill:blue; text-rendering:geometricPrecision; color-rendering:optimizeQuality; image-rendering:optimizeQuality; color-interpolation:linearRGB; stroke:blue; stroke-width:2.6667;"
    ><path style="fill:none;" d="M-4 0 L4 0"
    /></g
    ><g transform="translate(329.5094,125.9419)" style="fill:blue; text-rendering:geometricPrecision; color-rendering:optimizeQuality; image-rendering:optimizeQuality; color-interpolation:linearRGB; stroke:blue;"
    ><path style="stroke:none;" d="M-4 0 L4 0"
    /></g
    ><g transform="translate(329.5094,125.9419)" style="stroke-linecap:butt; fill:blue; text-rendering:geometricPrecision; color-rendering:optimizeQuality; image-rendering:optimizeQuality; color-interpolation:linearRGB; stroke:blue; stroke-width:2.6667;"
    ><path style="fill:none;" d="M-4 0 L4 0"
    /></g
    ><g transform="translate(383.4785,99.6476)" style="fill:blue; text-rendering:geometricPrecision; color-rendering:optimizeQuality; image-rendering:optimizeQuality; color-interpolation:linearRGB; stroke:blue;"
    ><path style="stroke:none;" d="M-4 0 L4 0"
    /></g
    ><g transform="translate(383.4785,99.6476)" style="stroke-linecap:butt; fill:blue; text-rendering:geometricPrecision; color-rendering:optimizeQuality; image-rendering:optimizeQuality; color-interpolation:linearRGB; stroke:blue; stroke-width:2.6667;"
    ><path style="fill:none;" d="M-4 0 L4 0"
    /></g
    ><g transform="translate(403.556,88.2414)" style="fill:blue; text-rendering:geometricPrecision; color-rendering:optimizeQuality; image-rendering:optimizeQuality; color-interpolation:linearRGB; stroke:blue;"
    ><path style="stroke:none;" d="M-4 0 L4 0"
    /></g
    ><g transform="translate(403.556,88.2414)" style="stroke-linecap:butt; fill:blue; text-rendering:geometricPrecision; color-rendering:optimizeQuality; image-rendering:optimizeQuality; color-interpolation:linearRGB; stroke:blue; stroke-width:2.6667;"
    ><path style="fill:none;" d="M-4 0 L4 0"
    /></g
    ><g transform="translate(431.9072,73.9634)" style="fill:blue; text-rendering:geometricPrecision; color-rendering:optimizeQuality; image-rendering:optimizeQuality; color-interpolation:linearRGB; stroke:blue;"
    ><path style="stroke:none;" d="M-4 0 L4 0"
    /></g
    ><g transform="translate(431.9072,73.9634)" style="stroke-linecap:butt; fill:blue; text-rendering:geometricPrecision; color-rendering:optimizeQuality; image-rendering:optimizeQuality; color-interpolation:linearRGB; stroke:blue; stroke-width:2.6667;"
    ><path style="fill:none;" d="M-4 0 L4 0"
    /></g
    ><g transform="translate(478.9216,50.837)" style="fill:blue; text-rendering:geometricPrecision; color-rendering:optimizeQuality; image-rendering:optimizeQuality; color-interpolation:linearRGB; stroke:blue;"
    ><path style="stroke:none;" d="M-4 0 L4 0"
    /></g
    ><g transform="translate(478.9216,50.837)" style="stroke-linecap:butt; fill:blue; text-rendering:geometricPrecision; color-rendering:optimizeQuality; image-rendering:optimizeQuality; color-interpolation:linearRGB; stroke:blue; stroke-width:2.6667;"
    ><path style="fill:none;" d="M-4 0 L4 0"
      /><path transform="translate(-478.9216,-50.837)" style="fill:none; fill-rule:evenodd; stroke-linejoin:bevel; stroke-dasharray:8,8; stroke-miterlimit:1;" d="M153.0676 240.6268 L193.3416 217.38 L224.6496 199.3084 L256.1942 181.1004 L297.5799 157.2118 L329.5094 138.7816 L383.4785 107.6297 L403.556 96.0406 L431.9072 79.6758 L478.9216 52.5383"
      /><line transform="translate(-478.9216,-50.837)" x1="94.2818" x2="94.2818" y1="275.1673" style="fill:none; stroke-linejoin:round; stroke:red;" y2="304.1291"
      /><line transform="translate(-478.9216,-50.837)" x1="230.3106" x2="230.3106" y1="198.4369" style="fill:none; stroke-linejoin:round; stroke:red;" y2="208.0838"
      /><line transform="translate(-478.9216,-50.837)" x1="250.3127" x2="250.3127" y1="186.2393" style="fill:none; stroke-linejoin:round; stroke:red;" y2="194.8175"
      /><line transform="translate(-478.9216,-50.837)" x1="308.5508" x2="308.5508" y1="154.2455" style="fill:none; stroke-linejoin:round; stroke:red;" y2="160.5652"
      /><line transform="translate(-478.9216,-50.837)" x1="94.2818" x2="94.2818" y1="275.1673" style="fill:none; stroke-linejoin:round; stroke:red;" y2="257.1007"
      /><line transform="translate(-478.9216,-50.837)" x1="230.3106" x2="230.3106" y1="198.4369" style="fill:none; stroke-linejoin:round; stroke:red;" y2="190.3829"
      /><line transform="translate(-478.9216,-50.837)" x1="250.3127" x2="250.3127" y1="186.2393" style="fill:none; stroke-linejoin:round; stroke:red;" y2="178.9437"
      /><line transform="translate(-478.9216,-50.837)" x1="308.5508" x2="308.5508" y1="154.2455" style="fill:none; stroke-linejoin:round; stroke:red;" y2="148.6498"
      /><circle transform="translate(-384.6399,224.3303)" style="fill:none; stroke:red;" r="4" cx="-0.5" cy="-0.5"
      /><circle transform="translate(-248.611,147.5999)" style="fill:none; stroke:red;" r="4" cx="-0.5" cy="-0.5"
      /><circle transform="translate(-228.609,135.4024)" style="fill:none; stroke:red;" r="4" cx="-0.5" cy="-0.5"
      /><circle transform="translate(-170.3709,103.4086)" style="fill:none; stroke:red;" r="4" cx="-0.5" cy="-0.5"
    /></g
    ><g transform="translate(94.2818,304.1291)" style="fill:red; text-rendering:geometricPrecision; color-rendering:optimizeQuality; image-rendering:optimizeQuality; color-interpolation:linearRGB; stroke:red;"
    ><path style="stroke:none;" d="M-4 0 L4 0"
    /></g
    ><g transform="translate(94.2818,304.1291)" style="stroke-linecap:butt; fill:red; text-rendering:geometricPrecision; color-rendering:optimizeQuality; image-rendering:optimizeQuality; color-interpolation:linearRGB; stroke:red; stroke-width:2.6667;"
    ><path style="fill:none;" d="M-4 0 L4 0"
    /></g
    ><g transform="translate(230.3106,208.0838)" style="fill:red; text-rendering:geometricPrecision; color-rendering:optimizeQuality; image-rendering:optimizeQuality; color-interpolation:linearRGB; stroke:red;"
    ><path style="stroke:none;" d="M-4 0 L4 0"
    /></g
    ><g transform="translate(230.3106,208.0838)" style="stroke-linecap:butt; fill:red; text-rendering:geometricPrecision; color-rendering:optimizeQuality; image-rendering:optimizeQuality; color-interpolation:linearRGB; stroke:red; stroke-width:2.6667;"
    ><path style="fill:none;" d="M-4 0 L4 0"
    /></g
    ><g transform="translate(250.3127,194.8175)" style="fill:red; text-rendering:geometricPrecision; color-rendering:optimizeQuality; image-rendering:optimizeQuality; color-interpolation:linearRGB; stroke:red;"
    ><path style="stroke:none;" d="M-4 0 L4 0"
    /></g
    ><g transform="translate(250.3127,194.8175)" style="stroke-linecap:butt; fill:red; text-rendering:geometricPrecision; color-rendering:optimizeQuality; image-rendering:optimizeQuality; color-interpolation:linearRGB; stroke:red; stroke-width:2.6667;"
    ><path style="fill:none;" d="M-4 0 L4 0"
    /></g
    ><g transform="translate(308.5508,160.5652)" style="fill:red; text-rendering:geometricPrecision; color-rendering:optimizeQuality; image-rendering:optimizeQuality; color-interpolation:linearRGB; stroke:red;"
    ><path style="stroke:none;" d="M-4 0 L4 0"
    /></g
    ><g transform="translate(308.5508,160.5652)" style="stroke-linecap:butt; fill:red; text-rendering:geometricPrecision; color-rendering:optimizeQuality; image-rendering:optimizeQuality; color-interpolation:linearRGB; stroke:red; stroke-width:2.6667;"
    ><path style="fill:none;" d="M-4 0 L4 0"
    /></g
    ><g transform="translate(94.2818,257.1007)" style="fill:red; text-rendering:geometricPrecision; color-rendering:optimizeQuality; image-rendering:optimizeQuality; color-interpolation:linearRGB; stroke:red;"
    ><path style="stroke:none;" d="M-4 0 L4 0"
    /></g
    ><g transform="translate(94.2818,257.1007)" style="stroke-linecap:butt; fill:red; text-rendering:geometricPrecision; color-rendering:optimizeQuality; image-rendering:optimizeQuality; color-interpolation:linearRGB; stroke:red; stroke-width:2.6667;"
    ><path style="fill:none;" d="M-4 0 L4 0"
    /></g
    ><g transform="translate(230.3106,190.3829)" style="fill:red; text-rendering:geometricPrecision; color-rendering:optimizeQuality; image-rendering:optimizeQuality; color-interpolation:linearRGB; stroke:red;"
    ><path style="stroke:none;" d="M-4 0 L4 0"
    /></g
    ><g transform="translate(230.3106,190.3829)" style="stroke-linecap:butt; fill:red; text-rendering:geometricPrecision; color-rendering:optimizeQuality; image-rendering:optimizeQuality; color-interpolation:linearRGB; stroke:red; stroke-width:2.6667;"
    ><path style="fill:none;" d="M-4 0 L4 0"
    /></g
    ><g transform="translate(250.3127,178.9437)" style="fill:red; text-rendering:geometricPrecision; color-rendering:optimizeQuality; image-rendering:optimizeQuality; color-interpolation:linearRGB; stroke:red;"
    ><path style="stroke:none;" d="M-4 0 L4 0"
    /></g
    ><g transform="translate(250.3127,178.9437)" style="stroke-linecap:butt; fill:red; text-rendering:geometricPrecision; color-rendering:optimizeQuality; image-rendering:optimizeQuality; color-interpolation:linearRGB; stroke:red; stroke-width:2.6667;"
    ><path style="fill:none;" d="M-4 0 L4 0"
    /></g
    ><g transform="translate(308.5508,148.6498)" style="fill:red; text-rendering:geometricPrecision; color-rendering:optimizeQuality; image-rendering:optimizeQuality; color-interpolation:linearRGB; stroke:red;"
    ><path style="stroke:none;" d="M-4 0 L4 0"
    /></g
    ><g transform="translate(308.5508,148.6498)" style="stroke-linecap:butt; fill:red; text-rendering:geometricPrecision; color-rendering:optimizeQuality; image-rendering:optimizeQuality; color-interpolation:linearRGB; stroke:red; stroke-width:2.6667;"
    ><path style="fill:none;" d="M-4 0 L4 0"
      /><path transform="translate(-308.5508,-148.6498)" style="fill:none; fill-rule:evenodd; stroke-linejoin:bevel; stroke-dasharray:8,8; stroke-miterlimit:1;" d="M94.2818 275.0884 L230.3106 198.1814 L250.3127 186.8728 L308.5508 153.9465"
    /></g
    ><g style="fill:white; text-rendering:optimizeSpeed; color-rendering:optimizeSpeed; image-rendering:optimizeSpeed; shape-rendering:crispEdges; color-interpolation:sRGB; stroke:white;"
    ><path style="stroke:none;" d="M250 336 L250 230 L494 230 L494 336 Z"
    /></g
    ><g transform="translate(297,244.5687)" style="font-size:19px; text-rendering:geometricPrecision; color-rendering:optimizeQuality; image-rendering:optimizeQuality; font-family:sans-serif; color-interpolation:linearRGB;"
    ><text x="0" xml:space="preserve" y="7.5" style="stroke:none;"
      >Data, CW excitation</text
    ></g
    ><g transform="translate(274,254.3649)" style="fill:blue; text-rendering:geometricPrecision; color-rendering:optimizeQuality; image-rendering:optimizeQuality; color-interpolation:linearRGB; stroke:blue;"
    ><path style="stroke:none;" d="M-4 0 L4 0"
    /></g
    ><g transform="translate(274,254.3649)" style="stroke-linecap:butt; fill:blue; text-rendering:geometricPrecision; color-rendering:optimizeQuality; image-rendering:optimizeQuality; color-interpolation:linearRGB; stroke:blue; stroke-width:2.6667;"
    ><path style="fill:none;" d="M-4 0 L4 0"
    /></g
    ><g transform="translate(274,234.7725)" style="fill:blue; text-rendering:geometricPrecision; color-rendering:optimizeQuality; image-rendering:optimizeQuality; color-interpolation:linearRGB; stroke:blue;"
    ><path style="stroke:none;" d="M-4 0 L4 0"
    /></g
    ><g transform="translate(274,234.7725)" style="stroke-linecap:butt; fill:blue; text-rendering:geometricPrecision; color-rendering:optimizeQuality; image-rendering:optimizeQuality; color-interpolation:linearRGB; stroke:blue; stroke-width:2.6667;"
    ><path style="fill:none;" d="M-4 0 L4 0"
      /><line transform="translate(-274,-234.7725)" x1="274" x2="274" y1="254.3649" style="fill:none; stroke-linejoin:round;" y2="234.7725"
      /><path d="M-3 -3 L-3 3 L3 3 L3 -3 Z" style="fill:none;" transform="translate(0,9.7962)"
    /></g
    ><g transform="translate(297,278)" style="font-size:19px; text-rendering:geometricPrecision; color-rendering:optimizeQuality; image-rendering:optimizeQuality; font-family:sans-serif; color-interpolation:linearRGB;"
    ><text x="0" xml:space="preserve" y="0" style="stroke:none;"
      >Fit. Slope = </text
    ></g
    ><g transform="translate(399,278)" style="font-size:19px; text-rendering:geometricPrecision; color-rendering:optimizeQuality; image-rendering:optimizeQuality; font-family:sans-serif; color-interpolation:linearRGB;"
    ><text x="0" xml:space="preserve" y="0" style="stroke:none;"
      >1.0176</text
    ></g
    ><g style="stroke-linecap:butt; fill:blue; text-rendering:geometricPrecision; color-rendering:optimizeQuality; image-rendering:optimizeQuality; stroke-linejoin:bevel; stroke-dasharray:8,8; color-interpolation:linearRGB; stroke:blue; stroke-width:2.6667; stroke-miterlimit:1;"
    ><line y2="270.1896" style="fill:none;" x1="254" x2="294" y1="270.1896"
    /></g
    ><g transform="translate(297,295.8104)" style="font-size:19px; text-rendering:geometricPrecision; color-rendering:optimizeQuality; image-rendering:optimizeQuality; font-family:sans-serif; color-interpolation:linearRGB;"
    ><text x="0" xml:space="preserve" y="7.5" style="stroke:none;"
      >Data, pulsed excitation</text
    ></g
    ><g transform="translate(274,305.6066)" style="fill:red; text-rendering:geometricPrecision; color-rendering:optimizeQuality; image-rendering:optimizeQuality; color-interpolation:linearRGB; stroke:red;"
    ><path style="stroke:none;" d="M-4 0 L4 0"
    /></g
    ><g transform="translate(274,305.6066)" style="stroke-linecap:butt; fill:red; text-rendering:geometricPrecision; color-rendering:optimizeQuality; image-rendering:optimizeQuality; color-interpolation:linearRGB; stroke:red; stroke-width:2.6667;"
    ><path style="fill:none;" d="M-4 0 L4 0"
    /></g
    ><g transform="translate(274,286.0142)" style="fill:red; text-rendering:geometricPrecision; color-rendering:optimizeQuality; image-rendering:optimizeQuality; color-interpolation:linearRGB; stroke:red;"
    ><path style="stroke:none;" d="M-4 0 L4 0"
    /></g
    ><g transform="translate(274,286.0142)" style="stroke-linecap:butt; fill:red; text-rendering:geometricPrecision; color-rendering:optimizeQuality; image-rendering:optimizeQuality; color-interpolation:linearRGB; stroke:red; stroke-width:2.6667;"
    ><path style="fill:none;" d="M-4 0 L4 0"
      /><line transform="translate(-274,-286.0142)" x1="274" x2="274" y1="305.6066" style="fill:none; stroke-linejoin:round;" y2="286.0142"
      /><circle r="4" style="fill:none;" cx="-0.5" transform="translate(0,9.7962)" cy="-0.5"
    /></g
    ><g transform="translate(297,329)" style="font-size:19px; text-rendering:geometricPrecision; color-rendering:optimizeQuality; image-rendering:optimizeQuality; font-family:sans-serif; color-interpolation:linearRGB;"
    ><text x="0" xml:space="preserve" y="0" style="stroke:none;"
      >Fit. Slope = </text
    ></g
    ><g transform="translate(399,329)" style="font-size:19px; text-rendering:geometricPrecision; color-rendering:optimizeQuality; image-rendering:optimizeQuality; font-family:sans-serif; color-interpolation:linearRGB;"
    ><text x="0" xml:space="preserve" y="0" style="stroke:none;"
      >0.9967</text
    ></g
    ><g style="stroke-linecap:butt; fill:red; text-rendering:geometricPrecision; color-rendering:optimizeQuality; image-rendering:optimizeQuality; stroke-linejoin:bevel; stroke-dasharray:8,8; color-interpolation:linearRGB; stroke:red; stroke-width:2.6667; stroke-miterlimit:1;"
    ><line y2="321.4313" style="fill:none;" x1="254" x2="294" y1="321.4313"
    /></g
    ><g style="stroke-linecap:butt; fill:rgb(38,38,38); text-rendering:geometricPrecision; color-rendering:optimizeQuality; image-rendering:optimizeQuality; color-interpolation:linearRGB; stroke:rgb(38,38,38); stroke-width:2.6667;"
    ><path d="M250 336 L250 230 L494 230 L494 336 Z" style="fill:none; fill-rule:evenodd;"
    /></g
  ></g
></svg
>
